void checkKilled(entity p, float ep)
{
	if (p.enemy.flags & FL_CLIENT)
	{
		p.enemy.lastkill = time;

		if(time - p.enemy.lastkill < 3)
			p.enemy.groupkill++;
		else
			p.enemy.groupkill = 0;	//reset number of enemies killed in a short span count.

		if(p.enemy.groupkill >= 5)
			cheevo(p.enemy, ACHV_ONSLAUGHT);

		if(total_monsters == killed_monsters)
			cheevo(p.enemy, ACHV_RANCHER);				

		if(p.classname == "monster_army")
			p.enemy.killed_grunts++;

		if(p.enemy.killed_grunts >= 5)
			cheevo(p.enemy, ACHV_ZOMBIE);

		if(p.classname == "monster_tarbaby")
			p.enemy.killed_tarbabies++;

		if(p.enemy.killed_tarbabies >= 5)
			cheevo(p.enemy, ACHV_QQQ);

		if(vlen(p.origin - p.enemy.origin) >= 1500)
			cheevo(p.enemy, ACHV_SNIPER);
	}

	if(p.deathtype == "falling")
		cheevo(p, ACHV_GERONIMO);

	if(p.enemy.classname == "teledeath")
	{
		if(p.enemy.owner.classname != "player")
			cheevo(p.enemy.owner.enemy, ACHV_TELEFRAG);	//monsters telefrag themselves
		else
			cheevo(p.enemy.owner, ACHV_TELEFRAG);

	}

	if(p.enemy.classname == "teledeath2")
	{
		if(p.enemy.owner.classname != "player")
			cheevo(p.enemy.owner, ACHV_DEFLECT_TELEFRAG);
		else
			cheevo(p.enemy.owner, ACHV_TELEFRAG);
	}
}

